simulation/qsim/Project4.msim.vcd
$comment
	File created using the following command:
		vcd file Project4.msim.vcd -direction
$end
$date
	Sat Nov 30 13:53:51 2024
$end
$version
	ModelSim Version 10.5b
$end
$timescale
	1ps
$end

$scope module Project4_vlg_vec_tst $end
$var reg 1 ! a $end
$var reg 1 " b $end
$var reg 1 # c $end
$var reg 1 $ d $end
$var reg 1 % e $end
$var reg 1 & f $end
$var reg 1 ' g $end
$var reg 1 ( h $end
$var wire 1 ) pin_name1 $end

$scope module i1 $end
$var wire 1 * gnd $end
$var wire 1 + vcc $end
$var wire 1 , unknown $end
$var tri1 1 - devclrn $end
$var tri1 1 . devpor $end
$var tri1 1 / devoe $end
$var wire 1 0 ~QUARTUS_CREATED_GND~I_combout $end
$var wire 1 1 ~QUARTUS_CREATED_UNVM~~busy $end
$var wire 1 2 ~QUARTUS_CREATED_ADC1~~eoc $end
$var wire 1 3 ~QUARTUS_CREATED_ADC2~~eoc $end
$var wire 1 4 pin_name1~output_o $end
$var wire 1 5 b~input_o $end
$var wire 1 6 a~input_o $end
$var wire 1 7 c~input_o $end
$var wire 1 8 d~input_o $end
$var wire 1 9 inst6~0_combout $end
$var wire 1 : e~input_o $end
$var wire 1 ; f~input_o $end
$var wire 1 < g~input_o $end
$var wire 1 = h~input_o $end
$var wire 1 > inst8~0_combout $end
$var wire 1 ? inst8~combout $end
$upscope $end
$upscope $end
$enddefinitions $end
#0
$dumpvars
0!
0"
0#
0$
0%
0&
0'
0(
1)
0*
1+
x,
1-
1.
1/
00
z1
z2
z3
14
05
06
07
08
09
0:
0;
0<
0=
1>
1?
$end
#2000
1(
1=
#4000
1'
0(
0=
1<
#6000
1(
1=
#8000
1&
0'
0(
0=
0<
1;
#10000
1(
1=
#12000
1'
0(
0=
1<
#14000
1(
1=
0>
0?
04
0)
#16000
1%
0&
0'
0(
0=
0<
0;
1:
1>
1?
14
1)
#18000
1(
1=
#20000
1'
0(
0=
1<
#22000
1(
1=
#24000
1&
0'
0(
0=
0<
1;
#26000
1(
1=
#28000
1'
0(
0=
1<
#30000
1(
1=
#32000
1$
0%
0&
0'
0(
0=
0<
0;
0:
18
19
#34000
1(
1=
#36000
1'
0(
0=
1<
#38000
1(
1=
#40000
1&
0'
0(
0=
0<
1;
#42000
1(
1=
#44000
1'
0(
0=
1<
#46000
1(
1=
0>
#48000
1%
0&
0'
0(
0=
0<
0;
1:
1>
#50000
1(
1=
#52000
1'
0(
0=
1<
#54000
1(
1=
#56000
1&
0'
0(
0=
0<
1;
#58000
1(
1=
#60000
1'
0(
0=
1<
#62000
1(
1=
#64000
1#
0$
0%
0&
0'
0(
0=
0<
0;
0:
08
17
09
#66000
1(
1=
#68000
1'
0(
0=
1<
#70000
1(
1=
#72000
1&
0'
0(
0=
0<
1;
#74000
1(
1=
#76000
1'
0(
0=
1<
#78000
1(
1=
0>
0?
04
0)
#80000
1%
0&
0'
0(
0=
0<
0;
1:
1>
1?
14
1)
#82000
1(
1=
#84000
1'
0(
0=
1<
#86000
1(
1=
#88000
1&
0'
0(
0=
0<
1;
#90000
1(
1=
#92000
1'
0(
0=
1<
#94000
1(
1=
#96000
1$
0%
0&
0'
0(
0=
0<
0;
0:
18
#98000
1(
1=
#100000
1'
0(
0=
1<
#102000
1(
1=
#104000
1&
0'
0(
0=
0<
1;
#106000
1(
1=
#108000
1'
0(
0=
1<
#110000
1(
1=
0>
0?
04
0)
#112000
1%
0&
0'
0(
0=
0<
0;
1:
1>
1?
14
1)
#114000
1(
1=
#116000
1'
0(
0=
1<
#118000
1(
1=
#120000
1&
0'
0(
0=
0<
1;
#122000
1(
1=
#124000
1'
0(
0=
1<
#126000
1(
1=
#128000
1"
0#
0$
0%
0&
0'
0(
0=
0<
0;
0:
08
07
15
#130000
1(
1=
#132000
1'
0(
0=
1<
#134000
1(
1=
#136000
1&
0'
0(
0=
0<
1;
#138000
1(
1=
#140000
1'
0(
0=
1<
#142000
1(
1=
0>
0?
04
0)
#144000
1%
0&
0'
0(
0=
0<
0;
1:
1>
1?
14
1)
#146000
1(
1=
#148000
1'
0(
0=
1<
#150000
1(
1=
#152000
1&
0'
0(
0=
0<
1;
#154000
1(
1=
#156000
1'
0(
0=
1<
#158000
1(
1=
#160000
1$
0%
0&
0'
0(
0=
0<
0;
0:
18
#162000
1(
1=
#164000
1'
0(
0=
1<
#166000
1(
1=
#168000
1&
0'
0(
0=
0<
1;
#170000
1(
1=
#172000
1'
0(
0=
1<
#174000
1(
1=
0>
0?
04
0)
#176000
1%
0&
0'
0(
0=
0<
0;
1:
1>
1?
14
1)
#178000
1(
1=
#180000
1'
0(
0=
1<
#182000
1(
1=
#184000
1&
0'
0(
0=
0<
1;
#186000
1(
1=
#188000
1'
0(
0=
1<
#190000
1(
1=
#192000
1#
0$
0%
0&
0'
0(
0=
0<
0;
0:
08
17
#194000
1(
1=
#196000
1'
0(
0=
1<
#198000
1(
1=
#200000
1&
0'
0(
0=
0<
1;
#202000
1(
1=
#204000
1'
0(
0=
1<
#206000
1(
1=
0>
0?
04
0)
#208000
1%
0&
0'
0(
0=
0<
0;
1:
1>
1?
14
1)
#210000
1(
1=
#212000
1'
0(
0=
1<
#214000
1(
1=
#216000
1&
0'
0(
0=
0<
1;
#218000
1(
1=
#220000
1'
0(
0=
1<
#222000
1(
1=
#224000
1$
0%
0&
0'
0(
0=
0<
0;
0:
18
#226000
1(
1=
#228000
1'
0(
0=
1<
#230000
1(
1=
#232000
1&
0'
0(
0=
0<
1;
#234000
1(
1=
#236000
1'
0(
0=
1<
#238000
1(
1=
0>
0?
04
0)
#240000
1%
0&
0'
0(
0=
0<
0;
1:
1>
1?
14
1)
#242000
1(
1=
#244000
1'
0(
0=
1<
#246000
1(
1=
#248000
1&
0'
0(
0=
0<
1;
#250000
1(
1=
#252000
1'
0(
0=
1<
#254000
1(
1=
#256000
1!
0"
0#
0$
0%
0&
0'
0(
0=
0<
0;
0:
08
07
05
16
#258000
1(
1=
#260000
1'
0(
0=
1<
#262000
1(
1=
#264000
1&
0'
0(
0=
0<
1;
#266000
1(
1=
#268000
1'
0(
0=
1<
#270000
1(
1=
0>
0?
04
0)
#272000
1%
0&
0'
0(
0=
0<
0;
1:
1>
1?
14
1)
#274000
1(
1=
#276000
1'
0(
0=
1<
#278000
1(
1=
#280000
1&
0'
0(
0=
0<
1;
#282000
1(
1=
#284000
1'
0(
0=
1<
#286000
1(
1=
#288000
1$
0%
0&
0'
0(
0=
0<
0;
0:
18
#290000
1(
1=
#292000
1'
0(
0=
1<
#294000
1(
1=
#296000
1&
0'
0(
0=
0<
1;
#298000
1(
1=
#300000
1'
0(
0=
1<
#302000
1(
1=
0>
0?
04
0)
#304000
1%
0&
0'
0(
0=
0<
0;
1:
1>
1?
14
1)
#306000
1(
1=
#308000
1'
0(
0=
1<
#310000
1(
1=
#312000
1&
0'
0(
0=
0<
1;
#314000
1(
1=
#316000
1'
0(
0=
1<
#318000
1(
1=
#320000
1#
0$
0%
0&
0'
0(
0=
0<
0;
0:
08
17
#322000
1(
1=
#324000
1'
0(
0=
1<
#326000
1(
1=
#328000
1&
0'
0(
0=
0<
1;
#330000
1(
1=
#332000
1'
0(
0=
1<
#334000
1(
1=
0>
0?
04
0)
#336000
1%
0&
0'
0(
0=
0<
0;
1:
1>
1?
14
1)
#338000
1(
1=
#340000
1'
0(
0=
1<
#342000
1(
1=
#344000
1&
0'
0(
0=
0<
1;
#346000
1(
1=
#348000
1'
0(
0=
1<
#350000
1(
1=
#352000
1$
0%
0&
0'
0(
0=
0<
0;
0:
18
#354000
1(
1=
#356000
1'
0(
0=
1<
#358000
1(
1=
#360000
1&
0'
0(
0=
0<
1;
#362000
1(
1=
#364000
1'
0(
0=
1<
#366000
1(
1=
0>
0?
04
0)
#368000
1%
0&
0'
0(
0=
0<
0;
1:
1>
1?
14
1)
#370000
1(
1=
#372000
1'
0(
0=
1<
#374000
1(
1=
#376000
1&
0'
0(
0=
0<
1;
#378000
1(
1=
#380000
1'
0(
0=
1<
#382000
1(
1=
#384000
1"
0#
0$
0%
0&
0'
0(
0=
0<
0;
0:
08
07
15
#386000
1(
1=
#388000
1'
0(
0=
1<
#390000
1(
1=
#392000
1&
0'
0(
0=
0<
1;
#394000
1(
1=
#396000
1'
0(
0=
1<
#398000
1(
1=
0>
0?
04
0)
#400000
1%
0&
0'
0(
0=
0<
0;
1:
1>
1?
14
1)
#402000
1(
1=
#404000
1'
0(
0=
1<
#406000
1(
1=
#408000
1&
0'
0(
0=
0<
1;
#410000
1(
1=
#412000
1'
0(
0=
1<
#414000
1(
1=
#416000
1$
0%
0&
0'
0(
0=
0<
0;
0:
18
#418000
1(
1=
#420000
1'
0(
0=
1<
#422000
1(
1=
#424000
1&
0'
0(
0=
0<
1;
#426000
1(
1=
#428000
1'
0(
0=
1<
#430000
1(
1=
0>
0?
04
0)
#432000
1%
0&
0'
0(
0=
0<
0;
1:
1>
1?
14
1)
#434000
1(
1=
#436000
1'
0(
0=
1<
#438000
1(
1=
#440000
1&
0'
0(
0=
0<
1;
#442000
1(
1=
#444000
1'
0(
0=
1<
#446000
1(
1=
#448000
1#
0$
0%
0&
0'
0(
0=
0<
0;
0:
08
17
#450000
1(
1=
#452000
1'
0(
0=
1<
#454000
1(
1=
#456000
1&
0'
0(
0=
0<
1;
#458000
1(
1=
#460000
1'
0(
0=
1<
#462000
1(
1=
0>
0?
04
0)
#464000
1%
0&
0'
0(
0=
0<
0;
1:
1>
1?
14
1)
#466000
1(
1=
#468000
1'
0(
0=
1<
#470000
1(
1=
#472000
1&
0'
0(
0=
0<
1;
#474000
1(
1=
#476000
1'
0(
0=
1<
#478000
1(
1=
#480000
1$
0%
0&
0'
0(
0=
0<
0;
0:
18
#482000
1(
1=
#484000
1'
0(
0=
1<
#486000
1(
1=
#488000
1&
0'
0(
0=
0<
1;
#490000
1(
1=
#492000
1'
0(
0=
1<
#494000
1(
1=
0>
0?
04
0)
#496000
1%
0&
0'
0(
0=
0<
0;
1:
1>
1?
14
1)
#498000
1(
1=
#500000
1'
0(
0=
1<
#502000
1(
1=
#504000
1&
0'
0(
0=
0<
1;
#506000
1(
1=
#508000
1'
0(
0=
1<
#510000
1(
1=
#512000
0!
0"
0#
0$
0%
0&
0'
0(
0=
0<
0;
0:
08
07
05
06
#514000
1(
1=
#516000
1'
0(
0=
1<
#518000
1(
1=
#520000
1&
0'
0(
0=
0<
1;
#522000
1(
1=
#524000
1'
0(
0=
1<
#526000
1(
1=
0>
0?
04
0)
#528000
1%
0&
0'
0(
0=
0<
0;
1:
1>
1?
14
1)
#530000
1(
1=
#532000
1'
0(
0=
1<
#534000
1(
1=
#536000
1&
0'
0(
0=
0<
1;
#538000
1(
1=
#540000
1'
0(
0=
1<
#542000
1(
1=
#544000
1$
0%
0&
0'
0(
0=
0<
0;
0:
18
19
#546000
1(
1=
#548000
1'
0(
0=
1<
#550000
1(
1=
#552000
1&
0'
0(
0=
0<
1;
#554000
1(
1=
#556000
1'
0(
0=
1<
#558000
1(
1=
0>
#560000
1%
0&
0'
0(
0=
0<
0;
1:
1>
#562000
1(
1=
#564000
1'
0(
0=
1<
#566000
1(
1=
#568000
1&
0'
0(
0=
0<
1;
#570000
1(
1=
#572000
1'
0(
0=
1<
#574000
1(
1=
#576000
1#
0$
0%
0&
0'
0(
0=
0<
0;
0:
08
17
09
#578000
1(
1=
#580000
1'
0(
0=
1<
#582000
1(
1=
#584000
1&
0'
0(
0=
0<
1;
#586000
1(
1=
#588000
1'
0(
0=
1<
#590000
1(
1=
0>
0?
04
0)
#592000
1%
0&
0'
0(
0=
0<
0;
1:
1>
1?
14
1)
#594000
1(
1=
#596000
1'
0(
0=
1<
#598000
1(
1=
#600000
1&
0'
0(
0=
0<
1;
#602000
1(
1=
#604000
1'
0(
0=
1<
#606000
1(
1=
#608000
1$
0%
0&
0'
0(
0=
0<
0;
0:
18
#610000
1(
1=
#612000
1'
0(
0=
1<
#614000
1(
1=
#616000
1&
0'
0(
0=
0<
1;
#618000
1(
1=
#620000
1'
0(
0=
1<
#622000
1(
1=
0>
0?
04
0)
#624000
1%
0&
0'
0(
0=
0<
0;
1:
1>
1?
14
1)
#626000
1(
1=
#628000
1'
0(
0=
1<
#630000
1(
1=
#632000
1&
0'
0(
0=
0<
1;
#634000
1(
1=
#636000
1'
0(
0=
1<
#638000
1(
1=
#640000
1"
0#
0$
0%
0&
0'
0(
0=
0<
0;
0:
08
07
15
#642000
1(
1=
#644000
1'
0(
0=
1<
#646000
1(
1=
#648000
1&
0'
0(
0=
0<
1;
#650000
1(
1=
#652000
1'
0(
0=
1<
#654000
1(
1=
0>
0?
04
0)
#656000
1%
0&
0'
0(
0=
0<
0;
1:
1>
1?
14
1)
#658000
1(
1=
#660000
1'
0(
0=
1<
#662000
1(
1=
#664000
1&
0'
0(
0=
0<
1;
#666000
1(
1=
#668000
1'
0(
0=
1<
#670000
1(
1=
#672000
1$
0%
0&
0'
0(
0=
0<
0;
0:
18
#674000
1(
1=
#676000
1'
0(
0=
1<
#678000
1(
1=
#680000
1&
0'
0(
0=
0<
1;
#682000
1(
1=
#684000
1'
0(
0=
1<
#686000
1(
1=
0>
0?
04
0)
#688000
1%
0&
0'
0(
0=
0<
0;
1:
1>
1?
14
1)
#690000
1(
1=
#692000
1'
0(
0=
1<
#694000
1(
1=
#696000
1&
0'
0(
0=
0<
1;
#698000
1(
1=
#700000
1'
0(
0=
1<
#702000
1(
1=
#704000
1#
0$
0%
0&
0'
0(
0=
0<
0;
0:
08
17
#706000
1(
1=
#708000
1'
0(
0=
1<
#710000
1(
1=
#712000
1&
0'
0(
0=
0<
1;
#714000
1(
1=
#716000
1'
0(
0=
1<
#718000
1(
1=
0>
0?
04
0)
#720000
1%
0&
0'
0(
0=
0<
0;
1:
1>
1?
14
1)
#722000
1(
1=
#724000
1'
0(
0=
1<
#726000
1(
1=
#728000
1&
0'
0(
0=
0<
1;
#730000
1(
1=
#732000
1'
0(
0=
1<
#734000
1(
1=
#736000
1$
0%
0&
0'
0(
0=
0<
0;
0:
18
#738000
1(
1=
#740000
1'
0(
0=
1<
#742000
1(
1=
#744000
1&
0'
0(
0=
0<
1;
#746000
1(
1=
#748000
1'
0(
0=
1<
#750000
1(
1=
0>
0?
04
0)
#752000
1%
0&
0'
0(
0=
0<
0;
1:
1>
1?
14
1)
#754000
1(
1=
#756000
1'
0(
0=
1<
#758000
1(
1=
#760000
1&
0'
0(
0=
0<
1;
#762000
1(
1=
#764000
1'
0(
0=
1<
#766000
1(
1=
#768000
1!
0"
0#
0$
0%
0&
0'
0(
0=
0<
0;
0:
08
07
05
16
#770000
1(
1=
#772000
1'
0(
0=
1<
#774000
1(
1=
#776000
1&
0'
0(
0=
0<
1;
#778000
1(
1=
#780000
1'
0(
0=
1<
#782000
1(
1=
0>
0?
04
0)
#784000
1%
0&
0'
0(
0=
0<
0;
1:
1>
1?
14
1)
#786000
1(
1=
#788000
1'
0(
0=
1<
#790000
1(
1=
#792000
1&
0'
0(
0=
0<
1;
#794000
1(
1=
#796000
1'
0(
0=
1<
#798000
1(
1=
#800000
1$
0%
0&
0'
0(
0=
0<
0;
0:
18
#802000
1(
1=
#804000
1'
0(
0=
1<
#806000
1(
1=
#808000
1&
0'
0(
0=
0<
1;
#810000
1(
1=
#812000
1'
0(
0=
1<
#814000
1(
1=
0>
0?
04
0)
#816000
1%
0&
0'
0(
0=
0<
0;
1:
1>
1?
14
1)
#818000
1(
1=
#820000
1'
0(
0=
1<
#822000
1(
1=
#824000
1&
0'
0(
0=
0<
1;
#826000
1(
1=
#828000
1'
0(
0=
1<
#830000
1(
1=
#832000
1#
0$
0%
0&
0'
0(
0=
0<
0;
0:
08
17
#834000
1(
1=
#836000
1'
0(
0=
1<
#838000
1(
1=
#840000
1&
0'
0(
0=
0<
1;
#842000
1(
1=
#844000
1'
0(
0=
1<
#846000
1(
1=
0>
0?
04
0)
#848000
1%
0&
0'
0(
0=
0<
0;
1:
1>
1?
14
1)
#850000
1(
1=
#852000
1'
0(
0=
1<
#854000
1(
1=
#856000
1&
0'
0(
0=
0<
1;
#858000
1(
1=
#860000
1'
0(
0=
1<
#862000
1(
1=
#864000
1$
0%
0&
0'
0(
0=
0<
0;
0:
18
#866000
1(
1=
#868000
1'
0(
0=
1<
#870000
1(
1=
#872000
1&
0'
0(
0=
0<
1;
#874000
1(
1=
#876000
1'
0(
0=
1<
#878000
1(
1=
0>
0?
04
0)
#880000
1%
0&
0'
0(
0=
0<
0;
1:
1>
1?
14
1)
#882000
1(
1=
#884000
1'
0(
0=
1<
#886000
1(
1=
#888000
1&
0'
0(
0=
0<
1;
#890000
1(
1=
#892000
1'
0(
0=
1<
#894000
1(
1=
#896000
1"
0#
0$
0%
0&
0'
0(
0=
0<
0;
0:
08
07
15
#898000
1(
1=
#900000
1'
0(
0=
1<
#902000
1(
1=
#904000
1&
0'
0(
0=
0<
1;
#906000
1(
1=
#908000
1'
0(
0=
1<
#910000
1(
1=
0>
0?
04
0)
#912000
1%
0&
0'
0(
0=
0<
0;
1:
1>
1?
14
1)
#914000
1(
1=
#916000
1'
0(
0=
1<
#918000
1(
1=
#920000
1&
0'
0(
0=
0<
1;
#922000
1(
1=
#924000
1'
0(
0=
1<
#926000
1(
1=
#928000
1$
0%
0&
0'
0(
0=
0<
0;
0:
18
#930000
1(
1=
#932000
1'
0(
0=
1<
#934000
1(
1=
#936000
1&
0'
0(
0=
0<
1;
#938000
1(
1=
#940000
1'
0(
0=
1<
#942000
1(
1=
0>
0?
04
0)
#944000
1%
0&
0'
0(
0=
0<
0;
1:
1>
1?
14
1)
#946000
1(
1=
#948000
1'
0(
0=
1<
#950000
1(
1=
#952000
1&
0'
0(
0=
0<
1;
#954000
1(
1=
#956000
1'
0(
0=
1<
#958000
1(
1=
#960000
1#
0$
0%
0&
0'
0(
0=
0<
0;
0:
08
17
#962000
1(
1=
#964000
1'
0(
0=
1<
#966000
1(
1=
#968000
1&
0'
0(
0=
0<
1;
#970000
1(
1=
#972000
1'
0(
0=
1<
#974000
1(
1=
0>
0?
04
0)
#976000
1%
0&
0'
0(
0=
0<
0;
1:
1>
1?
14
1)
#978000
1(
1=
#980000
1'
0(
0=
1<
#982000
1(
1=
#984000
1&
0'
0(
0=
0<
1;
#986000
1(
1=
#988000
1'
0(
0=
1<
#990000
1(
1=
#992000
1$
0%
0&
0'
0(
0=
0<
0;
0:
18
#994000
1(
1=
#996000
1'
0(
0=
1<
#998000
1(
1=
